…
``` r
litters_df = janitor::clean_names(litters_df)
```

# select

choose colums of group, litter_number, gd0_weight, pups_born_alive in
dataset litters_df.

``` r
select(litters_df, group, litter_number, gd0_weight, pups_born_alive)
```

    ## # A tibble: 49 × 4
    ##    group litter_number   gd0_weight pups_born_alive
    ##    <chr> <chr>                <dbl>           <dbl>
    ##  1 Con7  #85                   19.7               3
    ##  2 Con7  #1/2/95/2             27                 8
    ##  3 Con7  #5/5/3/83/3-3         26                 6
    ##  4 Con7  #5/4/2/95/2           28.5               5
    ##  5 Con7  #4/2/95/3-3           NA                 6
    ##  6 Con7  #2/2/95/3-2           NA                 6
    ##  7 Con7  #1/5/3/83/3-3/2       NA                 9
    ##  8 Con8  #3/83/3-3             NA                 9
    ##  9 Con8  #2/95/3               NA                 8
    ## 10 Con8  #3/5/2/2/95           28.5               8
    ## # ℹ 39 more rows

from cloum … to…

``` r
select(litters_df, group:gd_of_birth)
```

    ## # A tibble: 49 × 5
    ##    group litter_number   gd0_weight gd18_weight gd_of_birth
    ##    <chr> <chr>                <dbl>       <dbl>       <dbl>
    ##  1 Con7  #85                   19.7        34.7          20
    ##  2 Con7  #1/2/95/2             27          42            19
    ##  3 Con7  #5/5/3/83/3-3         26          41.4          19
    ##  4 Con7  #5/4/2/95/2           28.5        44.1          19
    ##  5 Con7  #4/2/95/3-3           NA          NA            20
    ##  6 Con7  #2/2/95/3-2           NA          NA            20
    ##  7 Con7  #1/5/3/83/3-3/2       NA          NA            20
    ##  8 Con8  #3/83/3-3             NA          NA            20
    ##  9 Con8  #2/95/3               NA          NA            20
    ## 10 Con8  #3/5/2/2/95           28.5        NA            20
    ## # ℹ 39 more rows

get gid of …

``` r
select(litters_df, -pups_survive)
```

    ## # A tibble: 49 × 7
    ##    group litter_number   gd0_weight gd18_weight gd_of_birth pups_born_alive
    ##    <chr> <chr>                <dbl>       <dbl>       <dbl>           <dbl>
    ##  1 Con7  #85                   19.7        34.7          20               3
    ##  2 Con7  #1/2/95/2             27          42            19               8
    ##  3 Con7  #5/5/3/83/3-3         26          41.4          19               6
    ##  4 Con7  #5/4/2/95/2           28.5        44.1          19               5
    ##  5 Con7  #4/2/95/3-3           NA          NA            20               6
    ##  6 Con7  #2/2/95/3-2           NA          NA            20               6
    ##  7 Con7  #1/5/3/83/3-3/2       NA          NA            20               9
    ##  8 Con8  #3/83/3-3             NA          NA            20               9
    ##  9 Con8  #2/95/3               NA          NA            20               8
    ## 10 Con8  #3/5/2/2/95           28.5        NA            20               8
    ## # ℹ 39 more rows
    ## # ℹ 1 more variable: pups_dead_birth <dbl>

rename colum, and keep others

``` r
select(litters_df, GROUP = group, LiTtEr_NuMbEr = litter_number)
```

    ## # A tibble: 49 × 2
    ##    GROUP LiTtEr_NuMbEr  
    ##    <chr> <chr>          
    ##  1 Con7  #85            
    ##  2 Con7  #1/2/95/2      
    ##  3 Con7  #5/5/3/83/3-3  
    ##  4 Con7  #5/4/2/95/2    
    ##  5 Con7  #4/2/95/3-3    
    ##  6 Con7  #2/2/95/3-2    
    ##  7 Con7  #1/5/3/83/3-3/2
    ##  8 Con8  #3/83/3-3      
    ##  9 Con8  #2/95/3        
    ## 10 Con8  #3/5/2/2/95    
    ## # ℹ 39 more rows

keep colums start with …

``` r
select(litters_df, starts_with("gd"))
```

    ## # A tibble: 49 × 3
    ##    gd0_weight gd18_weight gd_of_birth
    ##         <dbl>       <dbl>       <dbl>
    ##  1       19.7        34.7          20
    ##  2       27          42            19
    ##  3       26          41.4          19
    ##  4       28.5        44.1          19
    ##  5       NA          NA            20
    ##  6       NA          NA            20
    ##  7       NA          NA            20
    ##  8       NA          NA            20
    ##  9       NA          NA            20
    ## 10       28.5        NA            20
    ## # ℹ 39 more rows

move specific columns to the front, keep everything else remain

``` r
select(litters_df, litter_number, pups_survive, everything())
```

    ## # A tibble: 49 × 8
    ##    litter_number   pups_survive group gd0_weight gd18_weight gd_of_birth
    ##    <chr>                  <dbl> <chr>      <dbl>       <dbl>       <dbl>
    ##  1 #85                        3 Con7        19.7        34.7          20
    ##  2 #1/2/95/2                  7 Con7        27          42            19
    ##  3 #5/5/3/83/3-3              5 Con7        26          41.4          19
    ##  4 #5/4/2/95/2                4 Con7        28.5        44.1          19
    ##  5 #4/2/95/3-3                6 Con7        NA          NA            20
    ##  6 #2/2/95/3-2                4 Con7        NA          NA            20
    ##  7 #1/5/3/83/3-3/2            9 Con7        NA          NA            20
    ##  8 #3/83/3-3                  8 Con8        NA          NA            20
    ##  9 #2/95/3                    8 Con8        NA          NA            20
    ## 10 #3/5/2/2/95                8 Con8        28.5        NA            20
    ## # ℹ 39 more rows
    ## # ℹ 2 more variables: pups_born_alive <dbl>, pups_dead_birth <dbl>

move column to front

``` r
relocate(litters_df, litter_number, pups_survive)
```

    ## # A tibble: 49 × 8
    ##    litter_number   pups_survive group gd0_weight gd18_weight gd_of_birth
    ##    <chr>                  <dbl> <chr>      <dbl>       <dbl>       <dbl>
    ##  1 #85                        3 Con7        19.7        34.7          20
    ##  2 #1/2/95/2                  7 Con7        27          42            19
    ##  3 #5/5/3/83/3-3              5 Con7        26          41.4          19
    ##  4 #5/4/2/95/2                4 Con7        28.5        44.1          19
    ##  5 #4/2/95/3-3                6 Con7        NA          NA            20
    ##  6 #2/2/95/3-2                4 Con7        NA          NA            20
    ##  7 #1/5/3/83/3-3/2            9 Con7        NA          NA            20
    ##  8 #3/83/3-3                  8 Con8        NA          NA            20
    ##  9 #2/95/3                    8 Con8        NA          NA            20
    ## 10 #3/5/2/2/95                8 Con8        28.5        NA            20
    ## # ℹ 39 more rows
    ## # ℹ 2 more variables: pups_born_alive <dbl>, pups_dead_birth <dbl>

# filter

!() filters that () is not ture

``` r
filter(litters_df, gd_of_birth <= 22)
```

    ## # A tibble: 49 × 8
    ##    group litter_number   gd0_weight gd18_weight gd_of_birth pups_born_alive
    ##    <chr> <chr>                <dbl>       <dbl>       <dbl>           <dbl>
    ##  1 Con7  #85                   19.7        34.7          20               3
    ##  2 Con7  #1/2/95/2             27          42            19               8
    ##  3 Con7  #5/5/3/83/3-3         26          41.4          19               6
    ##  4 Con7  #5/4/2/95/2           28.5        44.1          19               5
    ##  5 Con7  #4/2/95/3-3           NA          NA            20               6
    ##  6 Con7  #2/2/95/3-2           NA          NA            20               6
    ##  7 Con7  #1/5/3/83/3-3/2       NA          NA            20               9
    ##  8 Con8  #3/83/3-3             NA          NA            20               9
    ##  9 Con8  #2/95/3               NA          NA            20               8
    ## 10 Con8  #3/5/2/2/95           28.5        NA            20               8
    ## # ℹ 39 more rows
    ## # ℹ 2 more variables: pups_dead_birth <dbl>, pups_survive <dbl>
…
# mutate

### creat new variables

``` r
mutate(litters_df,
  wt_gain = gd18_weight - gd0_weight,
  group = str_to_lower(group)
)
```

    ## # A tibble: 49 × 9
    ##    group litter_number   gd0_weight gd18_weight gd_of_birth pups_born_alive
    ##    <chr> <chr>                <dbl>       <dbl>       <dbl>           <dbl>
    ##  1 con7  #85                   19.7        34.7          20               3
    ##  2 con7  #1/2/95/2             27          42            19               8
    ##  3 con7  #5/5/3/83/3-3         26          41.4          19               6
    ##  4 con7  #5/4/2/95/2           28.5        44.1          19               5
    ##  5 con7  #4/2/95/3-3           NA          NA            20               6
    ##  6 con7  #2/2/95/3-2           NA          NA            20               6
    ##  7 con7  #1/5/3/83/3-3/2       NA          NA            20               9
    ##  8 con8  #3/83/3-3             NA          NA            20               9
    ##  9 con8  #2/95/3               NA          NA            20               8
    ## 10 con8  #3/5/2/2/95           28.5        NA            20               8
    ## # ℹ 39 more rows
    ## # ℹ 3 more variables: pups_dead_birth <dbl>, pups_survive <dbl>, wt_gain <dbl>

# arrange

### put things in order

order group from small to large, then pups_born_alive

``` r
arrange(litters_df, group, pups_born_alive)
```

    ## # A tibble: 49 × 8
    ##    group litter_number   gd0_weight gd18_weight gd_of_birth pups_born_alive
    ##    <chr> <chr>                <dbl>       <dbl>       <dbl>           <dbl>
    ##  1 Con7  #85                   19.7        34.7          20               3
    ##  2 Con7  #5/4/2/95/2           28.5        44.1          19               5
    ##  3 Con7  #5/5/3/83/3-3         26          41.4          19               6
    ##  4 Con7  #4/2/95/3-3           NA          NA            20               6
    ##  5 Con7  #2/2/95/3-2           NA          NA            20               6
    ##  6 Con7  #1/2/95/2             27          42            19               8
    ##  7 Con7  #1/5/3/83/3-3/2       NA          NA            20               9
    ##  8 Con8  #2/2/95/2             NA          NA            19               5
    ##  9 Con8  #1/6/2/2/95-2         NA          NA            20               7
    ## 10 Con8  #3/6/2/2/95-3         NA          NA            20               7
    ## # ℹ 39 more rows
    ## # ℹ 2 more variables: pups_dead_birth <dbl>, pups_survive <dbl>
…
``` r
litters_df_clean_names = janitor::clean_names(litters_df_raw)
litters_df_selected_cols = select(litters_df_clean_names, -pups_survive)

litters_df_with_vars = 
  mutate(
    litters_df_selected_cols, 
    wt_gain = gd18_weight - gd0_weight,
    group = str_to_lower(group))
litters_df_with_vars_without_missing = 
  drop_na(litters_df_with_vars, wt_gain)
litters_df_with_vars_without_missing
```

    ## # A tibble: 31 × 8
    ##    group litter_number gd0_weight gd18_weight gd_of_birth pups_born_alive
    ##    <chr> <chr>              <dbl>       <dbl>       <dbl>           <dbl>
    ##  1 con7  #85                 19.7        34.7          20               3
    ##  2 con7  #1/2/95/2           27          42            19               8
    ##  3 con7  #5/5/3/83/3-3       26          41.4          19               6
    ##  4 con7  #5/4/2/95/2         28.5        44.1          19               5
    ##  5 mod7  #59                 17          33.4          19               8
    ##  6 mod7  #103                21.4        42.1          19               9
    ##  7 mod7  #3/82/3-2           28          45.9          20               5
    ##  8 mod7  #5/3/83/5-2         22.6        37            19               5
    ##  9 mod7  #106                21.7        37.8          20               5
    ## 10 mod7  #94/2               24.4        42.9          19               7
    ## # ℹ 21 more rows
    ## # ℹ 2 more variables: pups_dead_birth <dbl>, wt_gain <dbl>
…
